https://rndwww.nce.amadeus.net/git/rest/api/1.0/projects/bc/repos/document-impl/pull-requests?start=0

200
{
  "isLastPage": true,
  "limit": 25,
  "size": 5,
  "start": 0,
  "values": [
    {
      "author": {
        "approved": false,
        "role": "AUTHOR",
        "status": "UNAPPROVED",
        "user": {
          "active": true,
          "displayName": "Yassine EL GUZOULI (contractor)",
          "emailAddress": "Yassine.ELGUZOULI@amadeus.com",
          "id": 66669,
          "links": {
            "self": [
              {
                "href": "https://rndwww.nce.amadeus.net/git/users/yelguzouli"
              }
            ]
          },
          "name": "yelguzouli",
          "slug": "yelguzouli",
          "type": "NORMAL"
        }
      },
      "closed": false,
      "createdDate": 1583155560455,
      "description": "PR Description\nUpdating dependencies names. File status below :\n```\nhttps://amadeusworkplace.sharepoint.com/:x:/r/sites/DigitalTribe-WhiteTrain/_layouts/15/doc2.aspx?sourcedoc=%7B3495fcba-898b-4153-8dd8-a4030f78db28%7D&action=editnew\n```",
      "fromRef": {
        "displayId": "PTR99999999-WHITE-2425-Repo-name-update",
        "id": "refs/heads/PTR99999999-WHITE-2425-Repo-name-update",
        "latestCommit": "c3982f1fc272a62ccbc11a4882b2822fcecf9df7",
        "repository": {
          "forkable": true,
          "id": 210647,
          "links": {
            "self": [
              {
                "href": "https://rndwww.nce.amadeus.net/git/users/yelguzouli/repos/document-impl-yel/browse"
              }
            ]
          },
          "name": "document-impl-yel",
          "origin": {
            "forkable": true,
            "id": 49663,
            "links": {
              "clone": [
                {
                  "href": "https://rndwww.nce.amadeus.net/git/scm/bc/document-impl.git",
                  "name": "http"
                },
                {
                  "href": "ssh://git@git.rnd.amadeus.net/bc/document-impl.git",
                  "name": "ssh"
                }
              ],
              "self": [
                {
                  "href": "https://rndwww.nce.amadeus.net/git/projects/BC/repos/document-impl/browse"
                }
              ]
            },
            "name": "document-impl",
            "project": {
              "description": "DGA Components related to the booking.\r\n\r\nOwners:\r\nAIR-DGA-DGP-DBE",
              "id": 3091,
              "key": "BC",
              "links": {
                "self": [
                  {
                    "href": "https://rndwww.nce.amadeus.net/git/projects/BC"
                  }
                ]
              },
              "name": "Booking components",
              "public": false,
              "type": "NORMAL"
            },
            "public": true,
            "scmId": "git",
            "slug": "document-impl",
            "state": "AVAILABLE",
            "statusMessage": "Available"
          },
          "project": {
            "id": 11959,
            "key": "~YELGUZOULI",
            "links": {
              "self": [
                {
                  "href": "https://rndwww.nce.amadeus.net/git/users/yelguzouli"
                }
              ]
            },
            "name": "Yassine EL GUZOULI (contractor)",
            "owner": {
              "active": true,
              "displayName": "Yassine EL GUZOULI (contractor)",
              "emailAddress": "Yassine.ELGUZOULI@amadeus.com",
              "id": 66669,
              "links": {
                "self": [
                  {
                    "href": "https://rndwww.nce.amadeus.net/git/users/yelguzouli"
                  }
                ]
              },
              "name": "yelguzouli",
              "slug": "yelguzouli",
              "type": "NORMAL"
            },
            "type": "PERSONAL"
          },
          "public": false,
          "scmId": "git",
          "slug": "document-impl-yel",
          "state": "AVAILABLE",
          "statusMessage": "Available"
        }
      },
      "id": 548,
      "links": {
        "self": [
          {
            "href": "https://rndwww.nce.amadeus.net/git/projects/BC/repos/document-impl/pull-requests/548"
          }
        ]
      },
      "locked": false,
      "open": true,
      "participants": [
        {
          "approved": false,
          "role": "PARTICIPANT",
          "status": "UNAPPROVED",
          "user": {
            "active": true,
            "displayName": "SonarQube",
            "emailAddress": "sjk@amadeus.com",
            "id": 55751,
            "links": {
              "self": [
                {
                  "href": "https://rndwww.nce.amadeus.net/git/users/sonarqube"
                }
              ]
            },
            "name": "SonarQube",
            "slug": "sonarqube",
            "type": "NORMAL"
          }
        },
        {
          "approved": false,
          "role": "PARTICIPANT",
          "status": "UNAPPROVED",
          "user": {
            "active": true,
            "displayName": "swb2-izu-BC",
            "emailAddress": "swb2-izu-BC@amadeus.com",
            "id": 142345,
            "links": {
              "self": [
                {
                  "href": "https://rndwww.nce.amadeus.net/git/users/swb2-izu-bc"
                }
              ]
            },
            "name": "swb2-izu-BC",
            "slug": "swb2-izu-bc",
            "type": "NORMAL"
          }
        }
      ],
      "properties": {
        "commentCount": 6,
        "mergeResult": {
          "current": true,
          "outcome": "CLEAN"
        },
        "openTaskCount": 14,
        "resolvedTaskCount": 0
      },
      "reviewers": [
        {
          "approved": false,
          "role": "REVIEWER",
          "status": "UNAPPROVED",
          "user": {
            "active": true,
            "displayName": "Bindu SIJU",
            "emailAddress": "bsiju@amadeus.com",
            "id": 30270,
            "links": {
              "self": [
                {
                  "href": "https://rndwww.nce.amadeus.net/git/users/bsiju"
                }
              ]
            },
            "name": "bsiju",
            "slug": "bsiju",
            "type": "NORMAL"
          }
        },
        {
          "approved": false,
          "role": "REVIEWER",
          "status": "UNAPPROVED",
          "user": {
            "active": true,
            "displayName": "Francois-Xavier EHRHART (contractor)",
            "emailAddress": "francois-xavier.ehrhart@amadeus.com",
            "id": 21715,
            "links": {
              "self": [
                {
                  "href": "https://rndwww.nce.amadeus.net/git/users/fehrhart"
                }
              ]
            },
            "name": "fehrhart",
            "slug": "fehrhart",
            "type": "NORMAL"
          }
        },
        {
          "approved": false,
          "role": "REVIEWER",
          "status": "UNAPPROVED",
          "user": {
            "active": true,
            "displayName": "Frederic LARUELLE",
            "emailAddress": "flaruelle@amadeus.com",
            "id": 40745,
            "links": {
              "self": [
                {
                  "href": "https://rndwww.nce.amadeus.net/git/users/flaruelle"
                }
              ]
            },
            "name": "flaruelle",
            "slug": "flaruelle",
            "type": "NORMAL"
          }
        },
        {
          "approved": false,
          "role": "REVIEWER",
          "status": "UNAPPROVED",
          "user": {
            "active": true,
            "displayName": "Sandrine PANTALEO",
            "emailAddress": "sandrine.pantaleo@amadeus.com",
            "id": 52154,
            "links": {
              "self": [
                {
                  "href": "https://rndwww.nce.amadeus.net/git/users/spantaleo"
                }
              ]
            },
            "name": "spantaleo",
            "slug": "spantaleo",
            "type": "NORMAL"
          }
        },
        {
          "approved": false,
          "role": "REVIEWER",
          "status": "UNAPPROVED",
          "user": {
            "active": true,
            "displayName": "Van Minh Nhon TRUONG (contractor)",
            "emailAddress": "VanMinhNhon.TRUONG@amadeus.com",
            "id": 167523,
            "links": {
              "self": [
                {
                  "href": "https://rndwww.nce.amadeus.net/git/users/vtruong"
                }
              ]
            },
            "name": "vtruong",
            "slug": "vtruong",
            "type": "NORMAL"
          }
        },
        {
          "approved": false,
          "role": "REVIEWER",
          "status": "UNAPPROVED",
          "user": {
            "active": true,
            "displayName": "Timothy HAILL (contractor)",
            "emailAddress": "Timothy.HAILL@amadeus.com",
            "id": 20616,
            "links": {
              "self": [
                {
                  "href": "https://rndwww.nce.amadeus.net/git/users/thaill"
                }
              ]
            },
            "name": "thaill",
            "slug": "thaill",
            "type": "NORMAL"
          }
        },
        {
          "approved": false,
          "role": "REVIEWER",
          "status": "UNAPPROVED",
          "user": {
            "active": true,
            "displayName": "Kevin FERRARE (contractor)",
            "emailAddress": "kevin.ferrare@amadeus.com",
            "id": 20441,
            "links": {
              "self": [
                {
                  "href": "https://rndwww.nce.amadeus.net/git/users/kferrare"
                }
              ]
            },
            "name": "kferrare",
            "slug": "kferrare",
            "type": "NORMAL"
          }
        },
        {
          "approved": true,
          "lastReviewedCommit": "c3982f1fc272a62ccbc11a4882b2822fcecf9df7",
          "role": "REVIEWER",
          "status": "APPROVED",
          "user": {
            "active": true,
            "displayName": "Elisa FREDDO",
            "emailAddress": "elisa.freddo@amadeus.com",
            "id": 53503,
            "links": {
              "self": [
                {
                  "href": "https://rndwww.nce.amadeus.net/git/users/efreddo"
                }
              ]
            },
            "name": "efreddo",
            "slug": "efreddo",
            "type": "NORMAL"
          }
        },
        {
          "approved": false,
          "role": "REVIEWER",
          "status": "UNAPPROVED",
          "user": {
            "active": true,
            "displayName": "Thomas ERNEST",
            "emailAddress": "thomas.ernest@amadeus.com",
            "id": 20348,
            "links": {
              "self": [
                {
                  "href": "https://rndwww.nce.amadeus.net/git/users/ternest"
                }
              ]
            },
            "name": "ternest",
            "slug": "ternest",
            "type": "NORMAL"
          }
        },
        {
          "approved": false,
          "role": "REVIEWER",
          "status": "UNAPPROVED",
          "user": {
            "active": true,
            "displayName": "Francois PAILLET",
            "emailAddress": "Francois.PAILLET@amadeus.com",
            "id": 68064,
            "links": {
              "self": [
                {
                  "href": "https://rndwww.nce.amadeus.net/git/users/fpaillet"
                }
              ]
            },
            "name": "fpaillet",
            "slug": "fpaillet",
            "type": "NORMAL"
          }
        },
        {
          "approved": false,
          "role": "REVIEWER",
          "status": "UNAPPROVED",
          "user": {
            "active": true,
            "displayName": "Mathieu PILVEN",
            "emailAddress": "mathieu.pilven@amadeus.com",
            "id": 21219,
            "links": {
              "self": [
                {
                  "href": "https://rndwww.nce.amadeus.net/git/users/mpilven"
                }
              ]
            },
            "name": "mpilven",
            "slug": "mpilven",
            "type": "NORMAL"
          }
        },
        {
          "approved": false,
          "role": "REVIEWER",
          "status": "UNAPPROVED",
          "user": {
            "active": true,
            "displayName": "Boshko ZHERAJIKJ",
            "emailAddress": "boshko.zherajikj@amadeus.com",
            "id": 20476,
            "links": {
              "self": [
                {
                  "href": "https://rndwww.nce.amadeus.net/git/users/bzherajikj"
                }
              ]
            },
            "name": "bzherajikj",
            "slug": "bzherajikj",
            "type": "NORMAL"
          }
        },
        {
          "approved": false,
          "role": "REVIEWER",
          "status": "UNAPPROVED",
          "user": {
            "active": true,
            "displayName": "Lamyaa MABRAD (contractor)",
            "emailAddress": "Lamyaa.MABRAD@amadeus.com",
            "id": 132433,
            "links": {
              "self": [
                {
                  "href": "https://rndwww.nce.amadeus.net/git/users/lmabrad"
                }
              ]
            },
            "name": "lmabrad",
            "slug": "lmabrad",
            "type": "NORMAL"
          }
        }
      ],
      "state": "OPEN",
      "title": "PTR99999999 - WHITE-2425 - Repo name update to common values",
      "toRef": {
        "displayId": "develop",
        "id": "refs/heads/develop",
        "latestCommit": "0c1cdba2210a34f00dd3ea655f58ab866282040c",
        "repository": {
          "forkable": true,
          "id": 49663,
          "links": {
            "clone": [
              {
                "href": "https://rndwww.nce.amadeus.net/git/scm/bc/document-impl.git",
                "name": "http"
              },
              {
                "href": "ssh://git@git.rnd.amadeus.net/bc/document-impl.git",
                "name": "ssh"
              }
            ],
            "self": [
              {
                "href": "https://rndwww.nce.amadeus.net/git/projects/BC/repos/document-impl/browse"
              }
            ]
          },
          "name": "document-impl",
          "project": {
            "description": "DGA Components related to the booking.\r\n\r\nOwners:\r\nAIR-DGA-DGP-DBE",
            "id": 3091,
            "key": "BC",
            "links": {
              "self": [
                {
                  "href": "https://rndwww.nce.amadeus.net/git/projects/BC"
                }
              ]
            },
            "name": "Booking components",
            "public": false,
            "type": "NORMAL"
          },
          "public": true,
          "scmId": "git",
          "slug": "document-impl",
          "state": "AVAILABLE",
          "statusMessage": "Available"
        }
      },
      "updatedDate": 1583156508443,
      "version": 2
    },
    {
      "author": {
        "approved": false,
        "role": "AUTHOR",
        "status": "UNAPPROVED",
        "user": {
          "active": true,
          "displayName": "Francois PAILLET",
          "emailAddress": "Francois.PAILLET@amadeus.com",
          "id": 68064,
          "links": {
            "self": [
              {
                "href": "https://rndwww.nce.amadeus.net/git/users/fpaillet"
              }
            ]
          },
          "name": "fpaillet",
          "slug": "fpaillet",
          "type": "NORMAL"
        }
      },
      "closed": false,
      "createdDate": 1579516399161,
      "description": "https://rndwww.nce.amadeus.net/confluence/pages/viewpage.action?spaceKey=AirAndDocument&title=IR18004426+-+JL%3A%5BPRD%3AECO%5D%28i%29%3AOn+ETSR%2C+unable+to+search+web+receipt+from+reservation+information+with+PNRREF\n\nsolution proposed to JAL. By now, we only align the behaviour on all retrieve entrypoints.",
      "fromRef": {
        "displayId": "bugfix/ptr_18306469",
        "id": "refs/heads/bugfix/ptr_18306469",
        "latestCommit": "04d25eb658a91cefcc895a88e9014ea20e4d9c42",
        "repository": {
          "forkable": true,
          "id": 78058,
          "links": {
            "self": [
              {
                "href": "https://rndwww.nce.amadeus.net/git/users/fpaillet/repos/document-impl/browse"
              }
            ]
          },
          "name": "document-impl",
          "origin": {
            "forkable": true,
            "id": 49663,
            "links": {
              "clone": [
                {
                  "href": "https://rndwww.nce.amadeus.net/git/scm/bc/document-impl.git",
                  "name": "http"
                },
                {
                  "href": "ssh://git@git.rnd.amadeus.net/bc/document-impl.git",
                  "name": "ssh"
                }
              ],
              "self": [
                {
                  "href": "https://rndwww.nce.amadeus.net/git/projects/BC/repos/document-impl/browse"
                }
              ]
            },
            "name": "document-impl",
            "project": {
              "description": "DGA Components related to the booking.\r\n\r\nOwners:\r\nAIR-DGA-DGP-DBE",
              "id": 3091,
              "key": "BC",
              "links": {
                "self": [
                  {
                    "href": "https://rndwww.nce.amadeus.net/git/projects/BC"
                  }
                ]
              },
              "name": "Booking components",
              "public": false,
              "type": "NORMAL"
            },
            "public": true,
            "scmId": "git",
            "slug": "document-impl",
            "state": "AVAILABLE",
            "statusMessage": "Available"
          },
          "project": {
            "id": 11686,
            "key": "~FPAILLET",
            "links": {
              "self": [
                {
                  "href": "https://rndwww.nce.amadeus.net/git/users/fpaillet"
                }
              ]
            },
            "name": "Francois PAILLET",
            "owner": {
              "active": true,
              "displayName": "Francois PAILLET",
              "emailAddress": "Francois.PAILLET@amadeus.com",
              "id": 68064,
              "links": {
                "self": [
                  {
                    "href": "https://rndwww.nce.amadeus.net/git/users/fpaillet"
                  }
                ]
              },
              "name": "fpaillet",
              "slug": "fpaillet",
              "type": "NORMAL"
            },
            "type": "PERSONAL"
          },
          "public": false,
          "scmId": "git",
          "slug": "document-impl",
          "state": "AVAILABLE",
          "statusMessage": "Available"
        }
      },
      "id": 538,
      "links": {
        "self": [
          {
            "href": "https://rndwww.nce.amadeus.net/git/projects/BC/repos/document-impl/pull-requests/538"
          }
        ]
      },
      "locked": false,
      "open": true,
      "participants": [
        {
          "approved": false,
          "role": "PARTICIPANT",
          "status": "UNAPPROVED",
          "user": {
            "active": true,
            "displayName": "SonarQube",
            "emailAddress": "sjk@amadeus.com",
            "id": 55751,
            "links": {
              "self": [
                {
                  "href": "https://rndwww.nce.amadeus.net/git/users/sonarqube"
                }
              ]
            },
            "name": "SonarQube",
            "slug": "sonarqube",
            "type": "NORMAL"
          }
        },
        {
          "approved": false,
          "role": "PARTICIPANT",
          "status": "UNAPPROVED",
          "user": {
            "active": true,
            "displayName": "swb2-izu-BC",
            "emailAddress": "swb2-izu-BC@amadeus.com",
            "id": 142345,
            "links": {
              "self": [
                {
                  "href": "https://rndwww.nce.amadeus.net/git/users/swb2-izu-bc"
                }
              ]
            },
            "name": "swb2-izu-BC",
            "slug": "swb2-izu-bc",
            "type": "NORMAL"
          }
        }
      ],
      "properties": {
        "commentCount": 7,
        "mergeResult": {
          "current": true,
          "outcome": "CONFLICTED"
        },
        "openTaskCount": 14,
        "resolvedTaskCount": 0
      },
      "reviewers": [
        {
          "approved": false,
          "role": "REVIEWER",
          "status": "UNAPPROVED",
          "user": {
            "active": true,
            "displayName": "Sandrine PANTALEO",
            "emailAddress": "sandrine.pantaleo@amadeus.com",
            "id": 52154,
            "links": {
              "self": [
                {
                  "href": "https://rndwww.nce.amadeus.net/git/users/spantaleo"
                }
              ]
            },
            "name": "spantaleo",
            "slug": "spantaleo",
            "type": "NORMAL"
          }
        },
        {
          "approved": false,
          "role": "REVIEWER",
          "status": "UNAPPROVED",
          "user": {
            "active": true,
            "displayName": "Francois-Xavier EHRHART (contractor)",
            "emailAddress": "francois-xavier.ehrhart@amadeus.com",
            "id": 21715,
            "links": {
              "self": [
                {
                  "href": "https://rndwww.nce.amadeus.net/git/users/fehrhart"
                }
              ]
            },
            "name": "fehrhart",
            "slug": "fehrhart",
            "type": "NORMAL"
          }
        },
        {
          "approved": false,
          "role": "REVIEWER",
          "status": "UNAPPROVED",
          "user": {
            "active": true,
            "displayName": "Elisa FREDDO",
            "emailAddress": "elisa.freddo@amadeus.com",
            "id": 53503,
            "links": {
              "self": [
                {
                  "href": "https://rndwww.nce.amadeus.net/git/users/efreddo"
                }
              ]
            },
            "name": "efreddo",
            "slug": "efreddo",
            "type": "NORMAL"
          }
        },
        {
          "approved": false,
          "role": "REVIEWER",
          "status": "UNAPPROVED",
          "user": {
            "active": true,
            "displayName": "Frederic LARUELLE",
            "emailAddress": "flaruelle@amadeus.com",
            "id": 40745,
            "links": {
              "self": [
                {
                  "href": "https://rndwww.nce.amadeus.net/git/users/flaruelle"
                }
              ]
            },
            "name": "flaruelle",
            "slug": "flaruelle",
            "type": "NORMAL"
          }
        },
        {
          "approved": false,
          "role": "REVIEWER",
          "status": "UNAPPROVED",
          "user": {
            "active": true,
            "displayName": "Van Minh Nhon TRUONG (contractor)",
            "emailAddress": "VanMinhNhon.TRUONG@amadeus.com",
            "id": 167523,
            "links": {
              "self": [
                {
                  "href": "https://rndwww.nce.amadeus.net/git/users/vtruong"
                }
              ]
            },
            "name": "vtruong",
            "slug": "vtruong",
            "type": "NORMAL"
          }
        },
        {
          "approved": false,
          "role": "REVIEWER",
          "status": "UNAPPROVED",
          "user": {
            "active": true,
            "displayName": "Thomas ERNEST",
            "emailAddress": "thomas.ernest@amadeus.com",
            "id": 20348,
            "links": {
              "self": [
                {
                  "href": "https://rndwww.nce.amadeus.net/git/users/ternest"
                }
              ]
            },
            "name": "ternest",
            "slug": "ternest",
            "type": "NORMAL"
          }
        },
        {
          "approved": false,
          "role": "REVIEWER",
          "status": "UNAPPROVED",
          "user": {
            "active": true,
            "displayName": "Lamyaa MABRAD (contractor)",
            "emailAddress": "Lamyaa.MABRAD@amadeus.com",
            "id": 132433,
            "links": {
              "self": [
                {
                  "href": "https://rndwww.nce.amadeus.net/git/users/lmabrad"
                }
              ]
            },
            "name": "lmabrad",
            "slug": "lmabrad",
            "type": "NORMAL"
          }
        },
        {
          "approved": false,
          "role": "REVIEWER",
          "status": "UNAPPROVED",
          "user": {
            "active": true,
            "displayName": "Boshko ZHERAJIKJ",
            "emailAddress": "boshko.zherajikj@amadeus.com",
            "id": 20476,
            "links": {
              "self": [
                {
                  "href": "https://rndwww.nce.amadeus.net/git/users/bzherajikj"
                }
              ]
            },
            "name": "bzherajikj",
            "slug": "bzherajikj",
            "type": "NORMAL"
          }
        },
        {
          "approved": false,
          "role": "REVIEWER",
          "status": "UNAPPROVED",
          "user": {
            "active": true,
            "displayName": "Timothy HAILL (contractor)",
            "emailAddress": "Timothy.HAILL@amadeus.com",
            "id": 20616,
            "links": {
              "self": [
                {
                  "href": "https://rndwww.nce.amadeus.net/git/users/thaill"
                }
              ]
            },
            "name": "thaill",
            "slug": "thaill",
            "type": "NORMAL"
          }
        }
      ],
      "state": "OPEN",
      "title": "WIP DO NOT MERGE : PTR 18306469 - Recovery for JL:[PRD:ECO]:On ETSR, unable to search web receipt from reservation information with",
      "toRef": {
        "displayId": "release/6.11",
        "id": "refs/heads/release/6.11",
        "latestCommit": "5ba5e2fe586d571a55ed6f626be2a1d03116b711",
        "repository": {
          "forkable": true,
          "id": 49663,
          "links": {
            "clone": [
              {
                "href": "https://rndwww.nce.amadeus.net/git/scm/bc/document-impl.git",
                "name": "http"
              },
              {
                "href": "ssh://git@git.rnd.amadeus.net/bc/document-impl.git",
                "name": "ssh"
              }
            ],
            "self": [
              {
                "href": "https://rndwww.nce.amadeus.net/git/projects/BC/repos/document-impl/browse"
              }
            ]
          },
          "name": "document-impl",
          "project": {
            "description": "DGA Components related to the booking.\r\n\r\nOwners:\r\nAIR-DGA-DGP-DBE",
            "id": 3091,
            "key": "BC",
            "links": {
              "self": [
                {
                  "href": "https://rndwww.nce.amadeus.net/git/projects/BC"
                }
              ]
            },
            "name": "Booking components",
            "public": false,
            "type": "NORMAL"
          },
          "public": true,
          "scmId": "git",
          "slug": "document-impl",
          "state": "AVAILABLE",
          "statusMessage": "Available"
        }
      },
      "updatedDate": 1579613605701,
      "version": 8
    },
    {
      "author": {
        "approved": false,
        "role": "AUTHOR",
        "status": "UNAPPROVED",
        "user": {
          "active": false,
          "displayName": "cbabu",
          "id": 96472,
          "links": {
            "self": [
              {
                "href": "https://rndwww.nce.amadeus.net/git/users/cbabu"
              }
            ]
          },
          "name": "cbabu",
          "slug": "cbabu",
          "type": "NORMAL"
        }
      },
      "closed": false,
      "createdDate": 1555925836558,
      "description": "The value entered for Banker's Rate in TSM will be rewritten\r\n\r\ncherry-pick of https://rndwww.nce.amadeus.net/git/projects/BC/repos/document-impl/pull-requests/483/overview",
      "fromRef": {
        "displayId": "bugfix/PTR-14711360",
        "id": "refs/heads/bugfix/PTR-14711360",
        "latestCommit": "dbe0b2d8ea4c9b860e43c43e873bca3bf889ee30",
        "repository": {
          "forkable": true,
          "id": 208939,
          "links": {
            "self": [
              {
                "href": "https://rndwww.nce.amadeus.net/git/users/cbabu/repos/chandana_fork_document-impl/browse"
              }
            ]
          },
          "name": "chandana_fork_document-impl",
          "origin": {
            "forkable": true,
            "id": 49663,
            "links": {
              "clone": [
                {
                  "href": "https://rndwww.nce.amadeus.net/git/scm/bc/document-impl.git",
                  "name": "http"
                },
                {
                  "href": "ssh://git@git.rnd.amadeus.net/bc/document-impl.git",
                  "name": "ssh"
                }
              ],
              "self": [
                {
                  "href": "https://rndwww.nce.amadeus.net/git/projects/BC/repos/document-impl/browse"
                }
              ]
            },
            "name": "document-impl",
            "project": {
              "description": "DGA Components related to the booking.\r\n\r\nOwners:\r\nAIR-DGA-DGP-DBE",
              "id": 3091,
              "key": "BC",
              "links": {
                "self": [
                  {
                    "href": "https://rndwww.nce.amadeus.net/git/projects/BC"
                  }
                ]
              },
              "name": "Booking components",
              "public": false,
              "type": "NORMAL"
            },
            "public": true,
            "scmId": "git",
            "slug": "document-impl",
            "state": "AVAILABLE",
            "statusMessage": "Available"
          },
          "project": {
            "id": 20902,
            "key": "~CBABU",
            "links": {
              "self": [
                {
                  "href": "https://rndwww.nce.amadeus.net/git/users/cbabu"
                }
              ]
            },
            "name": "cbabu",
            "owner": {
              "active": false,
              "displayName": "cbabu",
              "id": 96472,
              "links": {
                "self": [
                  {
                    "href": "https://rndwww.nce.amadeus.net/git/users/cbabu"
                  }
                ]
              },
              "name": "cbabu",
              "slug": "cbabu",
              "type": "NORMAL"
            },
            "type": "PERSONAL"
          },
          "public": false,
          "scmId": "git",
          "slug": "chandana_fork_document-impl",
          "state": "AVAILABLE",
          "statusMessage": "Available"
        }
      },
      "id": 495,
      "links": {
        "self": [
          {
            "href": "https://rndwww.nce.amadeus.net/git/projects/BC/repos/document-impl/pull-requests/495"
          }
        ]
      },
      "locked": false,
      "open": true,
      "participants": [],
      "properties": {
        "commentCount": 1,
        "mergeResult": {
          "current": true,
          "outcome": "CLEAN"
        },
        "openTaskCount": 14,
        "resolvedTaskCount": 0
      },
      "reviewers": [
        {
          "approved": false,
          "role": "REVIEWER",
          "status": "UNAPPROVED",
          "user": {
            "active": true,
            "displayName": "Thomas ERNEST",
            "emailAddress": "thomas.ernest@amadeus.com",
            "id": 20348,
            "links": {
              "self": [
                {
                  "href": "https://rndwww.nce.amadeus.net/git/users/ternest"
                }
              ]
            },
            "name": "ternest",
            "slug": "ternest",
            "type": "NORMAL"
          }
        },
        {
          "approved": false,
          "role": "REVIEWER",
          "status": "UNAPPROVED",
          "user": {
            "active": true,
            "displayName": "Francois-Xavier EHRHART (contractor)",
            "emailAddress": "francois-xavier.ehrhart@amadeus.com",
            "id": 21715,
            "links": {
              "self": [
                {
                  "href": "https://rndwww.nce.amadeus.net/git/users/fehrhart"
                }
              ]
            },
            "name": "fehrhart",
            "slug": "fehrhart",
            "type": "NORMAL"
          }
        },
        {
          "approved": false,
          "role": "REVIEWER",
          "status": "UNAPPROVED",
          "user": {
            "active": true,
            "displayName": "Frederic LARUELLE",
            "emailAddress": "flaruelle@amadeus.com",
            "id": 40745,
            "links": {
              "self": [
                {
                  "href": "https://rndwww.nce.amadeus.net/git/users/flaruelle"
                }
              ]
            },
            "name": "flaruelle",
            "slug": "flaruelle",
            "type": "NORMAL"
          }
        },
        {
          "approved": false,
          "role": "REVIEWER",
          "status": "UNAPPROVED",
          "user": {
            "active": true,
            "displayName": "Boshko ZHERAJIKJ",
            "emailAddress": "boshko.zherajikj@amadeus.com",
            "id": 20476,
            "links": {
              "self": [
                {
                  "href": "https://rndwww.nce.amadeus.net/git/users/bzherajikj"
                }
              ]
            },
            "name": "bzherajikj",
            "slug": "bzherajikj",
            "type": "NORMAL"
          }
        },
        {
          "approved": false,
          "role": "REVIEWER",
          "status": "UNAPPROVED",
          "user": {
            "active": true,
            "displayName": "Elisa FREDDO",
            "emailAddress": "elisa.freddo@amadeus.com",
            "id": 53503,
            "links": {
              "self": [
                {
                  "href": "https://rndwww.nce.amadeus.net/git/users/efreddo"
                }
              ]
            },
            "name": "efreddo",
            "slug": "efreddo",
            "type": "NORMAL"
          }
        },
        {
          "approved": false,
          "role": "REVIEWER",
          "status": "UNAPPROVED",
          "user": {
            "active": true,
            "displayName": "Bindu SIJU",
            "emailAddress": "bsiju@amadeus.com",
            "id": 30270,
            "links": {
              "self": [
                {
                  "href": "https://rndwww.nce.amadeus.net/git/users/bsiju"
                }
              ]
            },
            "name": "bsiju",
            "slug": "bsiju",
            "type": "NORMAL"
          }
        },
        {
          "approved": false,
          "role": "REVIEWER",
          "status": "UNAPPROVED",
          "user": {
            "active": true,
            "displayName": "Sandrine PANTALEO",
            "emailAddress": "sandrine.pantaleo@amadeus.com",
            "id": 52154,
            "links": {
              "self": [
                {
                  "href": "https://rndwww.nce.amadeus.net/git/users/spantaleo"
                }
              ]
            },
            "name": "spantaleo",
            "slug": "spantaleo",
            "type": "NORMAL"
          }
        },
        {
          "approved": false,
          "role": "REVIEWER",
          "status": "UNAPPROVED",
          "user": {
            "active": false,
            "displayName": "kvlado",
            "id": 72216,
            "links": {
              "self": [
                {
                  "href": "https://rndwww.nce.amadeus.net/git/users/kvlado"
                }
              ]
            },
            "name": "kvlado",
            "slug": "kvlado",
            "type": "NORMAL"
          }
        },
        {
          "approved": false,
          "role": "REVIEWER",
          "status": "UNAPPROVED",
          "user": {
            "active": true,
            "displayName": "Francois PAILLET",
            "emailAddress": "Francois.PAILLET@amadeus.com",
            "id": 68064,
            "links": {
              "self": [
                {
                  "href": "https://rndwww.nce.amadeus.net/git/users/fpaillet"
                }
              ]
            },
            "name": "fpaillet",
            "slug": "fpaillet",
            "type": "NORMAL"
          }
        }
      ],
      "state": "OPEN",
      "title": "PTR_14711360 | The value entered for Banker's Rate in TSM will be rewritten",
      "toRef": {
        "displayId": "release/6.4",
        "id": "refs/heads/release/6.4",
        "latestCommit": "a35f1f8e97fafaec1d34cb6352a90b2eb50bbcfa",
        "repository": {
          "forkable": true,
          "id": 49663,
          "links": {
            "clone": [
              {
                "href": "https://rndwww.nce.amadeus.net/git/scm/bc/document-impl.git",
                "name": "http"
              },
              {
                "href": "ssh://git@git.rnd.amadeus.net/bc/document-impl.git",
                "name": "ssh"
              }
            ],
            "self": [
              {
                "href": "https://rndwww.nce.amadeus.net/git/projects/BC/repos/document-impl/browse"
              }
            ]
          },
          "name": "document-impl",
          "project": {
            "description": "DGA Components related to the booking.\r\n\r\nOwners:\r\nAIR-DGA-DGP-DBE",
            "id": 3091,
            "key": "BC",
            "links": {
              "self": [
                {
                  "href": "https://rndwww.nce.amadeus.net/git/projects/BC"
                }
              ]
            },
            "name": "Booking components",
            "public": false,
            "type": "NORMAL"
          },
          "public": true,
          "scmId": "git",
          "slug": "document-impl",
          "state": "AVAILABLE",
          "statusMessage": "Available"
        }
      },
      "updatedDate": 1555925836558,
      "version": 6
    },
    {
      "author": {
        "approved": false,
        "role": "AUTHOR",
        "status": "UNAPPROVED",
        "user": {
          "active": true,
          "displayName": "Francois PAILLET",
          "emailAddress": "Francois.PAILLET@amadeus.com",
          "id": 68064,
          "links": {
            "self": [
              {
                "href": "https://rndwww.nce.amadeus.net/git/users/fpaillet"
              }
            ]
          },
          "name": "fpaillet",
          "slug": "fpaillet",
          "type": "NORMAL"
        }
      },
      "closed": false,
      "createdDate": 1538407919589,
      "fromRef": {
        "displayId": "ptr/improve-atc-eligibility-discr-log",
        "id": "refs/heads/ptr/improve-atc-eligibility-discr-log",
        "latestCommit": "c9156e007957eed5a051c329b35d0e583ac140c6",
        "repository": {
          "forkable": true,
          "id": 78058,
          "links": {
            "self": [
              {
                "href": "https://rndwww.nce.amadeus.net/git/users/fpaillet/repos/document-impl/browse"
              }
            ]
          },
          "name": "document-impl",
          "origin": {
            "forkable": true,
            "id": 49663,
            "links": {
              "clone": [
                {
                  "href": "https://rndwww.nce.amadeus.net/git/scm/bc/document-impl.git",
                  "name": "http"
                },
                {
                  "href": "ssh://git@git.rnd.amadeus.net/bc/document-impl.git",
                  "name": "ssh"
                }
              ],
              "self": [
                {
                  "href": "https://rndwww.nce.amadeus.net/git/projects/BC/repos/document-impl/browse"
                }
              ]
            },
            "name": "document-impl",
            "project": {
              "description": "DGA Components related to the booking.\r\n\r\nOwners:\r\nAIR-DGA-DGP-DBE",
              "id": 3091,
              "key": "BC",
              "links": {
                "self": [
                  {
                    "href": "https://rndwww.nce.amadeus.net/git/projects/BC"
                  }
                ]
              },
              "name": "Booking components",
              "public": false,
              "type": "NORMAL"
            },
            "public": true,
            "scmId": "git",
            "slug": "document-impl",
            "state": "AVAILABLE",
            "statusMessage": "Available"
          },
          "project": {
            "id": 11686,
            "key": "~FPAILLET",
            "links": {
              "self": [
                {
                  "href": "https://rndwww.nce.amadeus.net/git/users/fpaillet"
                }
              ]
            },
            "name": "Francois PAILLET",
            "owner": {
              "active": true,
              "displayName": "Francois PAILLET",
              "emailAddress": "Francois.PAILLET@amadeus.com",
              "id": 68064,
              "links": {
                "self": [
                  {
                    "href": "https://rndwww.nce.amadeus.net/git/users/fpaillet"
                  }
                ]
              },
              "name": "fpaillet",
              "slug": "fpaillet",
              "type": "NORMAL"
            },
            "type": "PERSONAL"
          },
          "public": false,
          "scmId": "git",
          "slug": "document-impl",
          "state": "AVAILABLE",
          "statusMessage": "Available"
        }
      },
      "id": 456,
      "links": {
        "self": [
          {
            "href": "https://rndwww.nce.amadeus.net/git/projects/BC/repos/document-impl/pull-requests/456"
          }
        ]
      },
      "locked": false,
      "open": true,
      "participants": [],
      "properties": {
        "commentCount": 1,
        "mergeResult": {
          "current": false,
          "outcome": "CLEAN"
        },
        "openTaskCount": 10,
        "resolvedTaskCount": 4
      },
      "reviewers": [
        {
          "approved": false,
          "role": "REVIEWER",
          "status": "UNAPPROVED",
          "user": {
            "active": false,
            "displayName": "vvaleanu",
            "id": 119128,
            "links": {
              "self": [
                {
                  "href": "https://rndwww.nce.amadeus.net/git/users/vvaleanu"
                }
              ]
            },
            "name": "vvaleanu",
            "slug": "vvaleanu",
            "type": "NORMAL"
          }
        },
        {
          "approved": false,
          "role": "REVIEWER",
          "status": "UNAPPROVED",
          "user": {
            "active": true,
            "displayName": "Boshko ZHERAJIKJ",
            "emailAddress": "boshko.zherajikj@amadeus.com",
            "id": 20476,
            "links": {
              "self": [
                {
                  "href": "https://rndwww.nce.amadeus.net/git/users/bzherajikj"
                }
              ]
            },
            "name": "bzherajikj",
            "slug": "bzherajikj",
            "type": "NORMAL"
          }
        },
        {
          "approved": false,
          "role": "REVIEWER",
          "status": "UNAPPROVED",
          "user": {
            "active": false,
            "displayName": "kvlado",
            "id": 72216,
            "links": {
              "self": [
                {
                  "href": "https://rndwww.nce.amadeus.net/git/users/kvlado"
                }
              ]
            },
            "name": "kvlado",
            "slug": "kvlado",
            "type": "NORMAL"
          }
        },
        {
          "approved": false,
          "role": "REVIEWER",
          "status": "UNAPPROVED",
          "user": {
            "active": true,
            "displayName": "Elisa FREDDO",
            "emailAddress": "elisa.freddo@amadeus.com",
            "id": 53503,
            "links": {
              "self": [
                {
                  "href": "https://rndwww.nce.amadeus.net/git/users/efreddo"
                }
              ]
            },
            "name": "efreddo",
            "slug": "efreddo",
            "type": "NORMAL"
          }
        },
        {
          "approved": false,
          "role": "REVIEWER",
          "status": "UNAPPROVED",
          "user": {
            "active": true,
            "displayName": "Alexandre FAGOT (contractor)",
            "emailAddress": "Alexandre.FAGOT@amadeus.com",
            "id": 66318,
            "links": {
              "self": [
                {
                  "href": "https://rndwww.nce.amadeus.net/git/users/afagot"
                }
              ]
            },
            "name": "afagot",
            "slug": "afagot",
            "type": "NORMAL"
          }
        },
        {
          "approved": false,
          "role": "REVIEWER",
          "status": "UNAPPROVED",
          "user": {
            "active": true,
            "displayName": "Sandrine PANTALEO",
            "emailAddress": "sandrine.pantaleo@amadeus.com",
            "id": 52154,
            "links": {
              "self": [
                {
                  "href": "https://rndwww.nce.amadeus.net/git/users/spantaleo"
                }
              ]
            },
            "name": "spantaleo",
            "slug": "spantaleo",
            "type": "NORMAL"
          }
        },
        {
          "approved": false,
          "role": "REVIEWER",
          "status": "UNAPPROVED",
          "user": {
            "active": true,
            "displayName": "Francois-Xavier EHRHART (contractor)",
            "emailAddress": "francois-xavier.ehrhart@amadeus.com",
            "id": 21715,
            "links": {
              "self": [
                {
                  "href": "https://rndwww.nce.amadeus.net/git/users/fehrhart"
                }
              ]
            },
            "name": "fehrhart",
            "slug": "fehrhart",
            "type": "NORMAL"
          }
        },
        {
          "approved": false,
          "role": "REVIEWER",
          "status": "UNAPPROVED",
          "user": {
            "active": true,
            "displayName": "Thomas ERNEST",
            "emailAddress": "thomas.ernest@amadeus.com",
            "id": 20348,
            "links": {
              "self": [
                {
                  "href": "https://rndwww.nce.amadeus.net/git/users/ternest"
                }
              ]
            },
            "name": "ternest",
            "slug": "ternest",
            "type": "NORMAL"
          }
        },
        {
          "approved": false,
          "role": "REVIEWER",
          "status": "UNAPPROVED",
          "user": {
            "active": true,
            "displayName": "Frederic LARUELLE",
            "emailAddress": "flaruelle@amadeus.com",
            "id": 40745,
            "links": {
              "self": [
                {
                  "href": "https://rndwww.nce.amadeus.net/git/users/flaruelle"
                }
              ]
            },
            "name": "flaruelle",
            "slug": "flaruelle",
            "type": "NORMAL"
          }
        },
        {
          "approved": false,
          "role": "REVIEWER",
          "status": "UNAPPROVED",
          "user": {
            "active": true,
            "displayName": "Bindu SIJU",
            "emailAddress": "bsiju@amadeus.com",
            "id": 30270,
            "links": {
              "self": [
                {
                  "href": "https://rndwww.nce.amadeus.net/git/users/bsiju"
                }
              ]
            },
            "name": "bsiju",
            "slug": "bsiju",
            "type": "NORMAL"
          }
        }
      ],
      "state": "OPEN",
      "title": "PTR 99999999 - improve atc pnr discrepancy log",
      "toRef": {
        "displayId": "develop",
        "id": "refs/heads/develop",
        "latestCommit": "0c1cdba2210a34f00dd3ea655f58ab866282040c",
        "repository": {
          "forkable": true,
          "id": 49663,
          "links": {
            "clone": [
              {
                "href": "https://rndwww.nce.amadeus.net/git/scm/bc/document-impl.git",
                "name": "http"
              },
              {
                "href": "ssh://git@git.rnd.amadeus.net/bc/document-impl.git",
                "name": "ssh"
              }
            ],
            "self": [
              {
                "href": "https://rndwww.nce.amadeus.net/git/projects/BC/repos/document-impl/browse"
              }
            ]
          },
          "name": "document-impl",
          "project": {
            "description": "DGA Components related to the booking.\r\n\r\nOwners:\r\nAIR-DGA-DGP-DBE",
            "id": 3091,
            "key": "BC",
            "links": {
              "self": [
                {
                  "href": "https://rndwww.nce.amadeus.net/git/projects/BC"
                }
              ]
            },
            "name": "Booking components",
            "public": false,
            "type": "NORMAL"
          },
          "public": true,
          "scmId": "git",
          "slug": "document-impl",
          "state": "AVAILABLE",
          "statusMessage": "Available"
        }
      },
      "updatedDate": 1538407919589,
      "version": 75
    },
    {
      "author": {
        "approved": false,
        "role": "AUTHOR",
        "status": "UNAPPROVED",
        "user": {
          "active": true,
          "displayName": "Geoffrey MUSELLI",
          "emailAddress": "geoffrey.muselli@amadeus.com",
          "id": 20569,
          "links": {
            "self": [
              {
                "href": "https://rndwww.nce.amadeus.net/git/users/gmuselli"
              }
            ]
          },
          "name": "gmuselli",
          "slug": "gmuselli",
          "type": "NORMAL"
        }
      },
      "closed": false,
      "createdDate": 1531840126620,
      "description": "* PTR 07646267 bumping version with Continuous Build Release to 5.12.5\r\n* PTR 07646267 Bumping version to match branch\r\n* PTR 14329302 sonar",
      "fromRef": {
        "displayId": "feature/test_alerting",
        "id": "refs/heads/feature/test_alerting",
        "latestCommit": "510184206a85369385db5c302e536f382736eb55",
        "repository": {
          "forkable": true,
          "id": 58518,
          "links": {
            "self": [
              {
                "href": "https://rndwww.nce.amadeus.net/git/users/gmuselli/repos/document-impl-gm/browse"
              }
            ]
          },
          "name": "document-impl-gm",
          "origin": {
            "forkable": true,
            "id": 49663,
            "links": {
              "clone": [
                {
                  "href": "https://rndwww.nce.amadeus.net/git/scm/bc/document-impl.git",
                  "name": "http"
                },
                {
                  "href": "ssh://git@git.rnd.amadeus.net/bc/document-impl.git",
                  "name": "ssh"
                }
              ],
              "self": [
                {
                  "href": "https://rndwww.nce.amadeus.net/git/projects/BC/repos/document-impl/browse"
                }
              ]
            },
            "name": "document-impl",
            "project": {
              "description": "DGA Components related to the booking.\r\n\r\nOwners:\r\nAIR-DGA-DGP-DBE",
              "id": 3091,
              "key": "BC",
              "links": {
                "self": [
                  {
                    "href": "https://rndwww.nce.amadeus.net/git/projects/BC"
                  }
                ]
              },
              "name": "Booking components",
              "public": false,
              "type": "NORMAL"
            },
            "public": true,
            "scmId": "git",
            "slug": "document-impl",
            "state": "AVAILABLE",
            "statusMessage": "Available"
          },
          "project": {
            "id": 2955,
            "key": "~GMUSELLI",
            "links": {
              "self": [
                {
                  "href": "https://rndwww.nce.amadeus.net/git/users/gmuselli"
                }
              ]
            },
            "name": "Geoffrey MUSELLI",
            "owner": {
              "active": true,
              "displayName": "Geoffrey MUSELLI",
              "emailAddress": "geoffrey.muselli@amadeus.com",
              "id": 20569,
              "links": {
                "self": [
                  {
                    "href": "https://rndwww.nce.amadeus.net/git/users/gmuselli"
                  }
                ]
              },
              "name": "gmuselli",
              "slug": "gmuselli",
              "type": "NORMAL"
            },
            "type": "PERSONAL"
          },
          "public": false,
          "scmId": "git",
          "slug": "document-impl-gm",
          "state": "AVAILABLE",
          "statusMessage": "Available"
        }
      },
      "id": 443,
      "links": {
        "self": [
          {
            "href": "https://rndwww.nce.amadeus.net/git/projects/BC/repos/document-impl/pull-requests/443"
          }
        ]
      },
      "locked": false,
      "open": true,
      "participants": [],
      "properties": {
        "commentCount": 1,
        "mergeResult": {
          "current": false,
          "outcome": "CLEAN"
        },
        "openTaskCount": 14,
        "resolvedTaskCount": 0
      },
      "reviewers": [
        {
          "approved": false,
          "role": "REVIEWER",
          "status": "UNAPPROVED",
          "user": {
            "active": true,
            "displayName": "Francois-Xavier EHRHART (contractor)",
            "emailAddress": "francois-xavier.ehrhart@amadeus.com",
            "id": 21715,
            "links": {
              "self": [
                {
                  "href": "https://rndwww.nce.amadeus.net/git/users/fehrhart"
                }
              ]
            },
            "name": "fehrhart",
            "slug": "fehrhart",
            "type": "NORMAL"
          }
        },
        {
          "approved": false,
          "role": "REVIEWER",
          "status": "UNAPPROVED",
          "user": {
            "active": true,
            "displayName": "Sandrine PANTALEO",
            "emailAddress": "sandrine.pantaleo@amadeus.com",
            "id": 52154,
            "links": {
              "self": [
                {
                  "href": "https://rndwww.nce.amadeus.net/git/users/spantaleo"
                }
              ]
            },
            "name": "spantaleo",
            "slug": "spantaleo",
            "type": "NORMAL"
          }
        },
        {
          "approved": false,
          "role": "REVIEWER",
          "status": "UNAPPROVED",
          "user": {
            "active": true,
            "displayName": "Bindu SIJU",
            "emailAddress": "bsiju@amadeus.com",
            "id": 30270,
            "links": {
              "self": [
                {
                  "href": "https://rndwww.nce.amadeus.net/git/users/bsiju"
                }
              ]
            },
            "name": "bsiju",
            "slug": "bsiju",
            "type": "NORMAL"
          }
        },
        {
          "approved": false,
          "role": "REVIEWER",
          "status": "UNAPPROVED",
          "user": {
            "active": false,
            "displayName": "kvlado",
            "id": 72216,
            "links": {
              "self": [
                {
                  "href": "https://rndwww.nce.amadeus.net/git/users/kvlado"
                }
              ]
            },
            "name": "kvlado",
            "slug": "kvlado",
            "type": "NORMAL"
          }
        },
        {
          "approved": false,
          "role": "REVIEWER",
          "status": "UNAPPROVED",
          "user": {
            "active": true,
            "displayName": "Frederic LARUELLE",
            "emailAddress": "flaruelle@amadeus.com",
            "id": 40745,
            "links": {
              "self": [
                {
                  "href": "https://rndwww.nce.amadeus.net/git/users/flaruelle"
                }
              ]
            },
            "name": "flaruelle",
            "slug": "flaruelle",
            "type": "NORMAL"
          }
        },
        {
          "approved": false,
          "role": "REVIEWER",
          "status": "UNAPPROVED",
          "user": {
            "active": true,
            "displayName": "Francois PAILLET",
            "emailAddress": "Francois.PAILLET@amadeus.com",
            "id": 68064,
            "links": {
              "self": [
                {
                  "href": "https://rndwww.nce.amadeus.net/git/users/fpaillet"
                }
              ]
            },
            "name": "fpaillet",
            "slug": "fpaillet",
            "type": "NORMAL"
          }
        },
        {
          "approved": false,
          "role": "REVIEWER",
          "status": "UNAPPROVED",
          "user": {
            "active": true,
            "displayName": "Thomas ERNEST",
            "emailAddress": "thomas.ernest@amadeus.com",
            "id": 20348,
            "links": {
              "self": [
                {
                  "href": "https://rndwww.nce.amadeus.net/git/users/ternest"
                }
              ]
            },
            "name": "ternest",
            "slug": "ternest",
            "type": "NORMAL"
          }
        },
        {
          "approved": false,
          "role": "REVIEWER",
          "status": "UNAPPROVED",
          "user": {
            "active": true,
            "displayName": "Manish SADASHIVA",
            "emailAddress": "manish.sadashiva@amadeus.com",
            "id": 30902,
            "links": {
              "self": [
                {
                  "href": "https://rndwww.nce.amadeus.net/git/users/msadashiva"
                }
              ]
            },
            "name": "msadashiva",
            "slug": "msadashiva",
            "type": "NORMAL"
          }
        },
        {
          "approved": false,
          "role": "REVIEWER",
          "status": "UNAPPROVED",
          "user": {
            "active": true,
            "displayName": "Alexandre FAGOT (contractor)",
            "emailAddress": "Alexandre.FAGOT@amadeus.com",
            "id": 66318,
            "links": {
              "self": [
                {
                  "href": "https://rndwww.nce.amadeus.net/git/users/afagot"
                }
              ]
            },
            "name": "afagot",
            "slug": "afagot",
            "type": "NORMAL"
          }
        },
        {
          "approved": false,
          "role": "REVIEWER",
          "status": "UNAPPROVED",
          "user": {
            "active": true,
            "displayName": "Boshko ZHERAJIKJ",
            "emailAddress": "boshko.zherajikj@amadeus.com",
            "id": 20476,
            "links": {
              "self": [
                {
                  "href": "https://rndwww.nce.amadeus.net/git/users/bzherajikj"
                }
              ]
            },
            "name": "bzherajikj",
            "slug": "bzherajikj",
            "type": "NORMAL"
          }
        },
        {
          "approved": false,
          "role": "REVIEWER",
          "status": "UNAPPROVED",
          "user": {
            "active": true,
            "displayName": "Elisa FREDDO",
            "emailAddress": "elisa.freddo@amadeus.com",
            "id": 53503,
            "links": {
              "self": [
                {
                  "href": "https://rndwww.nce.amadeus.net/git/users/efreddo"
                }
              ]
            },
            "name": "efreddo",
            "slug": "efreddo",
            "type": "NORMAL"
          }
        },
        {
          "approved": false,
          "role": "REVIEWER",
          "status": "UNAPPROVED",
          "user": {
            "active": true,
            "displayName": "Mourad HAMDOUN",
            "emailAddress": "mourad.hamdoun@amadeus.com",
            "id": 21838,
            "links": {
              "self": [
                {
                  "href": "https://rndwww.nce.amadeus.net/git/users/mhamdoun"
                }
              ]
            },
            "name": "mhamdoun",
            "slug": "mhamdoun",
            "type": "NORMAL"
          }
        }
      ],
      "state": "OPEN",
      "title": "DO NOT MERGE: ALERTING TEST",
      "toRef": {
        "displayId": "develop",
        "id": "refs/heads/develop",
        "latestCommit": "0c1cdba2210a34f00dd3ea655f58ab866282040c",
        "repository": {
          "forkable": true,
          "id": 49663,
          "links": {
            "clone": [
              {
                "href": "https://rndwww.nce.amadeus.net/git/scm/bc/document-impl.git",
                "name": "http"
              },
              {
                "href": "ssh://git@git.rnd.amadeus.net/bc/document-impl.git",
                "name": "ssh"
              }
            ],
            "self": [
              {
                "href": "https://rndwww.nce.amadeus.net/git/projects/BC/repos/document-impl/browse"
              }
            ]
          },
          "name": "document-impl",
          "project": {
            "description": "DGA Components related to the booking.\r\n\r\nOwners:\r\nAIR-DGA-DGP-DBE",
            "id": 3091,
            "key": "BC",
            "links": {
              "self": [
                {
                  "href": "https://rndwww.nce.amadeus.net/git/projects/BC"
                }
              ]
            },
            "name": "Booking components",
            "public": false,
            "type": "NORMAL"
          },
          "public": true,
          "scmId": "git",
          "slug": "document-impl",
          "state": "AVAILABLE",
          "statusMessage": "Available"
        }
      },
      "updatedDate": 1531840126620,
      "version": 87
    }
  ]
}